{
  "skills": {
    "Proficient in": "TypeScript, JavaScript, Vuejs, Git, Vagrant, Ansible",
    "Experienced with": "Nestjs, Adonisjs, Postgres, Postgres, Docker, Python, Django",
    "Familiar with": "Elixir, Phoenix, Reactjs"
  },
  "experiences": [
    {
      "company": "Rhythm Science",
      "location": "Remote in New York, NY",
      "duration": "Nov 2022 - Present",
      "position": "Frontend Architect",
      "details": [
        "Architected medical product features with Vuejs and Chartjs.",
        "Migrated codebase from Vue2 to Vue3 and refactored codebase.",
        "Completed product grooming, tech road map & code reviews for FE.",
        "Implemented PDF generation using Nodejs, Nuxtjs and Puppeteer."
      ]
    },
    {
      "company": "Torticity",
      "location": "Remote in New York, NY",
      "duration": "Dec 2021 - Nov 2022",
      "position": "Senior Software Engineer",
      "details": [
        "Built fullstack web apps using TypeScript, Vuejs and Nodejs.",
        "Architected configurable frontend components with Vuejs.",
        "Integrated API services twilio, sendgrid, & algolia into Nodejs web app.",
        "Worked extentively with Nuxtjs and Nestjs using Monorepo.",
        "Delivered all features with automated tests using Jest and Cypress."
      ]
    },
    {
      "company": "Ixlayer",
      "location": "Remote in New York, NY",
      "duration": "Dec 2020 - Dec 2021",
      "position": "Senior Frontend Engineer",
      "details": [
        "Architecting configurable white label web frontends with Vuejs.",
        "Lead initiative for internal component library with Storybook.js.",
        "Lead initiative for Jest unittesting and Cypress testing.",
        "Integrated Commitlint, Husky & other tools for better dev experience."
      ]
    },
    {
      "company": "Zipari",
      "location": "Remote in New York, NY",
      "duration": "Mar 2015 – Jan 2021",
      "position": "Lead Software Engineer",
      "details": [
        "Architected consumer facing and enterprise web apps using Django, AngularJS and Angular.",
        "Completed code reviews for projects and mentored frontend developers.",
        "Worked with developers, managers and clients to meet deadlines.",
        "Increased webpage performance by profiling and optimizing assets.",
        "Took web apps from little to no accessibility to full WCAG compliance.",
        "Helped convert leads to sales by architecting automated demo apps.",
        "Administered AWS infrastructure with Ansible, Jenkins and Gitlab."
      ]
    },
    {
      "company": "Dom and Tom",
      "location": "New York, NY",
      "duration": "Feb 2014 – Feb 2015",
      "position": "Full-Stack Developer",
      "details": [
        "Worked with MarionetteJS & AngularJS to build complex web apps.",
        "Used PHP Laravel to created RESTful APIs and OAuth2 authentication.",
        "Helped clients scope out projects & articulate ideas into functional apps."
      ]
    },
    {
      "company": "Food To Eat",
      "location": "New York, NY",
      "duration": "Sep 2013 – Feb 2014",
      "position": "Full-Stack Developer",
      "details": [
        "Built MVP web app using Django, BackboneJS & OpenLayers.",
        "Used Twilio to create user and vendor notification system."
      ]
    }
  ],
  "consulting": {
    "description": "Various web projects using JavaSciprt, HTML, CSS, and Postgres.",
    "organization": [
      {
        "company": "PublicStuff",
        "location": "New York, NY",
        "duration": "Jun 2013 – Sep 2013"
      },
      {
        "company": "Insticator",
        "location": "New York, NY",
        "duration": "Oct 2012 – Mar 2013"
      },
      {
        "company": "VIP Art",
        "location": "New York, NY",
        "duration": "Jun 2012 – Aug 2012"
      }
    ]
  }
}
